Fish outline analysis with R
…
The tutorial has been updated on 14th December 2020 with R 4.0.2 and Momocs v1.3.2.

Preliminaries

A simplified version of the dataset of fish outlines is included in the package Momocs (v > 1.2.2). The complete dataset can be downloaded here. Make sure the file CoralFishes.Rdata is in your working directory, then load it in R.

library(Momocs)
load("nsfishes.Rdata")
nsfishes

## Out (outlines)
##   - 218 outlines, 1523 +/- 423 coords (in $coo)
##   - 6 classifiers (in $fac): 
## # A tibble: 218 x 6
##   Species         Class        Superorder      Order       Family      Genus    
##   <fct>           <fct>        <fct>           <fct>       <fct>       <fct>    
## 1 Echiichthys vi Actinoptery Acanthopterygii Perciformes Trachinidae Echiicht
## 2 Alosa alosa     Actinoptery Clupeomorpha    Clupeiform Clupeidae   Alosa    
## 3 Alosa fallax    Actinoptery Clupeomorpha    Clupeiform Clupeidae   Alosa    
## 4 Anarhichas lup Actinoptery Acanthopterygii Perciformes Anarhichad Anarhich
## 5 Atherina presb Actinoptery Acanthopterygii Atherinifo Atherinidae Atherina 
## 6 Brosme brosme   Actinoptery Paracanthopter Gadiformes  Gadidae     Brosme   
## #  with 212 more rows
##   - also: $ldk
…
